702484 82720 509
267436 631776 509
898132 168599 525
114367 134425 349
289393 877082 525
759356 911004 525
354319 759636 509
180261 846825 525
530587 441744 470
890381 42062 525
713493 91558 509
199006 147128 383
838399 716994 525
785054 263970 509
861490 580544 525
654011 233128 509
202142 435252 449
779195 118224 509
205423 178812 365
522739 53741 470
508201 787821 509
645104 437425 509
359645 819063 509
857276 52918 525
51819 943380 525
75057 476409 449
313905 285386 389
556717 481814 470
997572 189117 525
373207 73025 443
214802 188005 373
267829 56887 443
531603 796110 509
510499 301156 449
672613 61645 509
263479 58630 443
252149 546611 470
226804 686459 509
523655 458172 470
440900 742669 509
235551 641147 509
137311 677062 509
445948 632137 509
72557 864523 525
504244 15296 449
315704 503047 449
654043 730191 504
850798 701741 525
538745 128494 470
931078 282458 525
17590 399398 443
768674 280972 509
990833 965786 458
320841 784669 509
247822 190302 443
846671 113110 525
533627 208879 470
806568 830778 450
146417 801830 509
371025 317328 441
3835 42058 324
561565 973192 525
527224 540508 377
724937 979087 525
880968 60796 525
21439 827179 509
445096 124684 449
476571 324025 449
369370 640731 509
693137 845454 525
441084 641195 509
425996 111802 449
166552 637798 509
281622 390066 441
734498 618508 509
683996 427656 509
17199 153580 375
950520 33546 525
881184 456089 525
391614 561714 470
891832 452220 525
119022 227149 386
124552 40523 354
635947 785264 504
379693 266909 441
457815 161309 449
668385 545283 509
590608 782584 509
251788 606851 470
902539 204510 525
415941 774634 509
385203 251310 441
73573 59346 335
392056 281035 441
339763 241100 407
836837 974960 525
697446 987301 525
752887 996837 525
563197 983633 525
791937 171078 509
42021 747673 509
410943 837038 509
729060 671225 504
112721 675227 509
783068 455510 509
319349 195370 443
362223 236151 441
104231 231267 443
723993 169980 509
113591 187517 383
77972 860871 525
505976 475481 426
465027 533205 470
512333 396844 470
649979 527256 509
139275 582587 470
894208 540982 525
804527 133934 509
653476 732608 504
440914 914211 525
650272 137532 509
162503 166213 352
165008 174227 352
67302 334006 443
894253 467683 525
762596 559618 509
837249 19278 509
897419 509783 525
827826 209915 509
722805 443689 509
402459 204828 443
887326 409161 525
272417 378536 441
122163 163292 383
843920 103096 525
719301 947727 525
636251 239912 509
853288 65576 525
605518 620247 447
618355 592767 447
491692 467680 413
503649 346878 449
507801 254372 449
451491 227758 449
193406 541996 470
365553 870963 525
613615 816310 509
949741 770521 525
260466 66478 443
726719 62506 509
430776 17467 449
772118 304310 509
812539 467881 509
159133 102481 383
740810 656787 504
86127 75260 351
799307 59349 509
818692 293495 509
549699 796031 509
708536 297912 509
163965 447360 449
907636 749557 525
224892 983330 525
414195 203334 449
745322 462620 509
691295 30223 509
787220 294936 509
986694 546455 525
551769 959925 525
828629 429840 509
227019 651639 509
216290 215504 324
51225 765527 509
675887 786161 504
133822 23755 354
821712 976266 525
337900 243611 407
555577 182650 470
137464 732324 509
985160 114215 525
126245 605193 470
330529 865228 525
931048 95190 525
328634 222234 443
23019 768081 509
715897 293608 509
966386 734554 525
138344 756248 509
371598 154962 443
866898 174604 525
248017 175736 443
33126 691656 509
485793 329350 449
956313 31807 525
651414 622497 509
647595 483329 509
200933 650312 509
650993 229721 509
153678 927955 525
958115 6877 525
936366 442079 525
730450 477877 509
153007 826745 509
543240 521849 408
199693 948672 525
98186 319348 443
878339 349968 525
104503 822470 509
824775 571560 509
320008 946682 525
150601 813965 509
44027 632582 509
286203 848061 525
690052 761374 504
494347 657098 509
427628 444997 400
442210 552502 470
299568 14535 443
117697 128482 336
384406 664851 509
227203 280226 443
966530 467301 525
466557 873919 525
944791 396514 525
908456 205898 525
517002 896693 525
966983 182886 525
356274 600347 470
752173 105674 509
925046 182314 525
500827 38339 449
781925 322301 509
108409 917076 525
753419 720922 424
209320 648783 509
670702 678840 385
128946 143697 375
185984 728171 509
138321 652215 509
992623 20342 525
11797 64490 340
299117 594752 470
738757 607665 509
744164 559072 509
232340 788230 509
863387 341270 525
881800 307628 525
176352 552150 470
401254 364325 436
155031 922152 525
