1 10 20
100 200 125
201 210 89
900 1000 174
942814 943178 277
190592 190667 285
222123 222436 262
590787 591302 359
52495 52807 340
171923 172149 228
899739 900191 370
874285 874706 388
764524 764964 362
981145 981493 321
210657 210892 324
249684 250161 332
782641 782762 238
361353 361664 286
133927 134525 269
673755 673888 292
606976 607468 341
132574 132975 331
427991 428157 281
545087 545468 315
511825 512205 470
698922 699208 274
153301 153694 308
86841 87266 333
442103 442472 263
520208 520395 302
286843 287352 327
779938 780064 344
403909 404163 330
617863 617990 235
196074 196218 236
697124 697594 318
273079 273564 283
501572 501834 289
200884 201035 267
434786 435171 356
164801 165342 321
842192 842630 269
522967 523152 258
351812 352284 335
630250 630388 341
987267 987442 290
609915 610346 341
314578 314813 278
187788 188267 316
386966 387205 224
204876 205293 311
707275 707705 274
938944 939067 290
334830 335190 322
912542 912699 339
232867 232945 275
56759 57133 304
58890 59073 273
662716 662937 292
365623 366019 335
778323 778515 437
143128 143426 251
254748 255337 363
40731 41113 288
976474 976371 246
967897 967823 228
127035 126859 300
606850 606699 266
194214 193815 329
243511 243137 319
966678 966149 365
409460 409204 268
696780 696632 336
547989 547565 377
489616 489329 245
814351 813877 269
131444 130958 300
877094 876613 295
201017 200948 174
526080 525743 258
818630 818198 344
229947 229521 306
446198 445704 325
221767 221657 231
338500 338297 304
793852 793352 269
157250 157029 233
532819 532476 377
174031 173639 321
457814 457746 338
681062 680809 336
485701 485163 320
84638 84577 183
854857 854749 264
317895 317640 278
950476 950069 308
515771 515258 302
350121 350054 273
759476 759011 362
608952 608445 266
907861 907566 295
472702 472126 276
950269 950004 308
17766 17373 279
36647 36295 249
875812 875624 432
688860 688367 274
551212 550808 284
237754 237445 319
119360 119139 274
138673 138147 313
305100 304584 309
429208 428837 281
775140 774977 437
510243 509916 289
380951 380731 286
482677 482080 351
366258 365708 335
83204 82979 227
537181 536737 377
708452 707968 349
804655 804541 238
457558 457153 276
461234 461033 276
386361 386583 255
29731 29915 272
431497 431711 312
161733 162223 290
608233 608284 279
840413 840994 357
651911 652043 310
212187 212667 355
627163 627548 310
987631 987762 352
553362 553707 346
288431 288857 389
160395 160856 370
84222 84439 302
443757 444139 338
10274 10442 255
756034 756303 331
860375 860502 251
338776 339009 291
629418 629725 266
276089 276657 314
1316 1698 180
189731 190033 360
932546 932693 308
17626 17679 279
572806 573313 297
123563 123875 305
835426 835486 220
242477 243037 288
854957 855447 264
347149 347502 322
826067 826657 313
857727 857873 251
12581 13141 263
635222 635621 416
669271 669756 292
57897 57981 229
213882 214364 324
198143 198211 192
862114 862614 295
154319 154901 326
288742 289294 345
859112 859562 313
461288 461606 263
630808 630974 310
148235 148807 326
965158 965742 321
752730 753161 305
398103 398363 343
458782 458985 263
896889 896966 233
556385 556702 346
124812 125077 256
606288 606792 310
43063 43353 257
446591 447076 325
102974 103485 235
108087 108434 248
253335 253812 332
660640 661182 292
940613 940360 277
547025 546627 452
525537 525373 240
668018 667888 292
343178 342760 273
606567 606042 328
166650 166338 334
74961 74667 325
523554 523217 271
493874 493381 395
817792 817577 344
424655 424279 312
730291 730047 380
999206 999139 321
347023 346885 304
250918 250705 319
479556 479446 276
680836 680622 336
893641 893480 264
717474 717261 305
916047 915470 339
447152 446968 294
172557 172336 303
843548 843253 282
445079 444572 325
559658 559100 284
821121 820827 313
54313 53811 260
607588 607298 341
269971 269504 345
315180 315109 340
606119 605821 235
21379 20927 256
81918 81650 289
122474 122005 256
699080 698793 274
79092 78996 245
852007 851865 326
787503 787322 300
146936 146632 295
934061 933557 370
454179 454024 338
861969 861892 295
76030 75694 294
112223 111673 323
307262 306799 309
145514 145363 264
214383 213802 373
647346 647127 310
74449 74131 294
188712 188382 316
62269 62115 255
625809 625635 279
202662 202233 342
888425 888031 295
113240 112746 292
5926 5549 236
883055 882989 220
186891 186430 347
29769 29713 166
